{
    "key": "group_624c848f59af9",
    "title": "Jerci+RAMS+Live demo Buttons",
    "fields": [
        {
            "key": "field_624c84b31a388",
            "label": "Jerci+RAMS+Live demo Buttons",
            "name": "jerci_rams_live_demo_buttons",
            "type": "repeater",
            "instructions": "",
            "required": 0,
            "conditional_logic": 0,
            "wrapper": {
                "width": "",
                "class": "",
                "id": ""
            },
            "collapsed": "",
            "min": 0,
            "max": 0,
            "layout": "table",
            "button_label": "Add Buttons",
            "sub_fields": [
                {
                    "key": "field_624c84c91a389",
                    "label": "Button Image",
                    "name": "button_image",
                    "type": "image",
                    "instructions": "",
                    "required": 0,
                    "conditional_logic": 0,
                    "wrapper": {
                        "width": "",
                        "class": "",
                        "id": ""
                    },
                    "return_format": "url",
                    "preview_size": "full",
                    "library": "all",
                    "min_width": "",
                    "min_height": "",
                    "min_size": "",
                    "max_width": "",
                    "max_height": "",
                    "max_size": "",
                    "mime_types": "png,jpg,jpeg"
                },
                {
                    "key": "field_624c84e61a38a",
                    "label": "Button Links",
                    "name": "button_links",
                    "type": "link",
                    "instructions": "",
                    "required": 0,
                    "conditional_logic": 0,
                    "wrapper": {
                        "width": "",
                        "class": "",
                        "id": ""
                    },
                    "return_format": "array"
                }
            ]
        }
    ],
    "location": [
        [
            {
                "param": "post",
                "operator": "==",
                "value": "133"
            }
        ]
    ],
    "menu_order": 0,
    "position": "normal",
    "style": "default",
    "label_placement": "top",
    "instruction_placement": "label",
    "hide_on_screen": "",
    "active": true,
    "description": "",
    "modified": 1649182228
}